{
  "0001" : {
    "name" : "Млечный путь",
    "price" : 145,
    "art": 801,
    "description" : "Сережки с фиолетовыми камнями",
    "image" : "img/blog-care-desktop@1x.jpg"
  },
  "0002" : {
    "name" : "На Уъй",
    "price" : 116,
    "art": 802,
    "description" : "Шелковая лента с серебряным треугольником",
    "image" : "img/layered-choker-necklace-desktop@1x.jpg"
  },
    "0003" : {
    "name" : "Колье с аметистом",
    "price" : 450,
    "art": 803,
    "description" : "Аметист в платиновой оправе",
    "image" : "img/purple-gemstone-necklace-catalog-desk@1x.jpg"
  },
    "0004" : {
    "name" : "Колье с аметистом",
    "price" : 450,
    "art": 803,
    "description" : "Аметист в платиновой оправе",
    "image" : "img/purple-gemstone-necklace-catalog-desk@1x.jpg"
  },
    "0005" : {
    "name" : "Чокер На Ухй",
    "price" : 116,
    "art": 802,
    "description" : "Шелковая лента с серебряным треугольником",
    "image" : "img/threader-necklace-closeup-desk@1x.jpg"
  },
    "0006" : {
    "name" : "Млечный путь",
    "price" : 145,
    "art": 801,
    "description" : "Сережки с фиолетовыми камнями",
    "image" : "img/marble-earrings-desk@1x.jpg"
  }
}